id;name;delivery_partner_api_key;is_active;created_at;updated_at;created_by;updated_by
1;morph;Cotton Quality;false;2022-11-05;2022-11-05;Chips;foreground synergy
2;Computers Assurance;Dollar management Dinar;false;2022-11-05;2022-11-05;Quality JSON;Personal
3;client-server;Indiana area;true;2022-11-05;2022-11-05;scalable Granite global;HDD
4;Refined;Representative De-engineered;true;2022-11-05;2022-11-05;bifurcated;Licensed firmware
5;Path compress;Nevada end-to-end;true;2022-11-05;2022-11-05;teal auxiliary;GB
6;Market Avon;hack;false;2022-11-05;2022-11-05;withdrawal reboot;demand-driven application
7;Optimization;Ethiopia;false;2022-11-05;2022-11-05;Table Steel array;Planner
8;withdrawal;Operations bluetooth;false;2022-11-05;2022-11-05;Lead;Total
9;THX;open Response;false;2022-11-05;2022-11-05;navigating Park copy;copy Ergonomic Garden
10;Bedfordshire Rubber;Crest bandwidth;true;2022-11-05;2022-11-05;interactive feed Franc;Mouse
