id;phone_no;user_id;browser_session_id;session_type
1;78437;productize disintermediate Won;vortals Utah;DC
2;97315;Senior Assimilated;Granite calculating;DeliveryPartner
3;2914;withdrawal Florida vertical;Generic optimizing Consultant;Vendor
4;12834;navigate;Cambridgeshire;DC
5;42924;Account Sleek;Buckinghamshire Tools Dakota;DeliveryPartner
6;17418;sexy incentivize lavender;hard;User
7;1012;Switzerland;XML Pennsylvania hybrid;DC
8;4525;partnerships;Dakota;User
9;26067;portals incremental;lime Account Concrete;Vendor
10;96323;red Paradigm incentivize;Ball;User
