id;pin;city;state;country
1;15679;South Saraiview;Maharastra;Virgin Islands, British
2;53381;Carissaborough;Delhi;Burkina Faso
3;61595;South Darrelltown;Karnataka;Heard Island and McDonald Islands
4;39068;St. Cloud;Maharastra;Ethiopia
5;27669;Millcreek;Karnataka;Benin
6;30800;Reillytown;Karnataka;Palestinian Territory
7;86823;Reyhaven;Gujrat;Marshall Islands
8;36801;West Shanie;Maharastra;El Salvador
9;18549;New Melyna;Gujrat;Mayotte
10;77850;Aylinfort;Karnataka;Falkland Islands (Malvinas)
