{
  "applications": ["exchange"],
  "changelogDate": "20221105190602",
  "dto": "mapstruct",
  "embedded": false,
  "entityTableName": "exchange_answer_set",
  "fields": [
    {
      "fieldName": "tag",
      "fieldType": "String"
    },
    {
      "fieldName": "createdAt",
      "fieldType": "LocalDate"
    },
    {
      "fieldName": "updatedAt",
      "fieldType": "LocalDate"
    },
    {
      "fieldName": "createdBy",
      "fieldType": "String"
    },
    {
      "fieldName": "updatedBy",
      "fieldType": "String"
    }
  ],
  "fluentMethods": true,
  "jpaMetamodelFiltering": false,
  "name": "ExchangeAnswerSet",
  "pagination": "infinite-scroll",
  "readOnly": false,
  "relationships": [
    {
      "otherEntityName": "exchangePrice",
      "otherEntityRelationshipName": "set",
      "ownerSide": true,
      "relationshipName": "price",
      "relationshipType": "one-to-one"
    },
    {
      "otherEntityName": "exchangeAnswer",
      "otherEntityRelationshipName": "set",
      "relationshipName": "exchangeAnswer",
      "relationshipType": "one-to-many"
    }
  ],
  "service": "serviceImpl"
}
